…
Note that because you are working with dplyr and a database, you will
need to use `dplyr::collect()` once you want to load the data into a
local data frame. For example:

``` r
tbl(ram, "area") %>% 
  collect()
#> # A tibble: 275 x 6
#>    country   areatype areacode areaname        alternateareaname areaid   
#>    <chr>     <chr>    <chr>    <chr>           <chr>             <chr>    
#>  1 Argentina CFP      ARG-N    Northern Argen… <NA>              Argentin…
#>  2 Argentina CFP      ARG-S    Southern Argen… <NA>              Argentin…
#>  3 Australia AFMA     CASCADE  Cascade Plateau <NA>              Australi…
#>  4 Australia AFMA     ESE      Eastern half o… <NA>              Australi…
#>  5 Australia AFMA     GAB      Great Australi… <NA>              Australi…
#>  6 Australia AFMA     MI       Macquarie Isla… ""                Australi…
#>  7 Australia AFMA     NAUST    Northern Austr… <NA>              Australi…
#>  8 Australia AFMA     NSWWA    New South Wale… <NA>              Australi…
#>  9 Australia AFMA     SE       Southeast Aust… <NA>              Australi…
#> 10 Australia AFMA     TAS      Tasmania        <NA>              Australi…
#> # ... with 265 more rows
```

For safety, you may want to use `dplyr::collect(n = Inf)` to return all
rows of data, not just the minimum default number. In this case it won’t
make a difference.

``` r
tbl(ram, "area") %>% 
  collect(n = Inf)
#> # A tibble: 275 x 6
#>    country   areatype areacode areaname        alternateareaname areaid   
#>    <chr>     <chr>    <chr>    <chr>           <chr>             <chr>    
#>  1 Argentina CFP      ARG-N    Northern Argen… <NA>              Argentin…
#>  2 Argentina CFP      ARG-S    Southern Argen… <NA>              Argentin…
#>  3 Australia AFMA     CASCADE  Cascade Plateau <NA>              Australi…
#>  4 Australia AFMA     ESE      Eastern half o… <NA>              Australi…
#>  5 Australia AFMA     GAB      Great Australi… <NA>              Australi…
#>  6 Australia AFMA     MI       Macquarie Isla… ""                Australi…
#>  7 Australia AFMA     NAUST    Northern Austr… <NA>              Australi…
#>  8 Australia AFMA     NSWWA    New South Wale… <NA>              Australi…
#>  9 Australia AFMA     SE       Southeast Aust… <NA>              Australi…
#> 10 Australia AFMA     TAS      Tasmania        <NA>              Australi…
#> # ... with 265 more rows
```
